<?xml version="1.0" encoding="UTF-8" standalone="no"?>
<svg width="31px" height="31px" viewBox="0 0 31 31" version="1.1" xmlns="http://www.w3.org/2000/svg" xmlns:xlink="http://www.w3.org/1999/xlink" xmlns:sketch="http://www.bohemiancoding.com/sketch/ns">
    <!-- Generator: Sketch 3.0.4 (8054) - http://www.bohemiancoding.com/sketch -->
    <title>Slice 2</title>
    <desc>Created with Sketch.</desc>
    <defs></defs>
    <g id="Page-1" stroke="none" stroke-width="1" fill="none" fill-rule="evenodd" sketch:type="MSPage">
        <path d="M25.18,30.99 L5.81,30.99 C2.6,30.99 0,28.38 0,25.18 L0,5.81 C0,2.6 2.61,1.13686838e-13 5.81,1.13686838e-13 L25.18,1.13686838e-13 C28.39,1.13686838e-13 30.99,2.6 30.99,5.81 L30.99,25.18 C30.99,28.39 28.39,30.99 25.18,30.99 L25.18,30.99 Z M22.28,19.37 L22.28,16.46 L20.3,16.47 L19.36,16.47 L19.36,15.5 L19.36,13.56 C19.36,12.32 20.32,11.63 21.21,11.62 L23.24,11.62 L23.24,8.7 L19.38,8.7 C17.84,8.7 16.47,10.04 16.47,11.61 L16.47,16.45 L13.57,16.45 L13.57,19.36 L16.47,19.36 L16.41,30.01 L19.37,30.01 L19.37,19.36 L22.28,19.36 L22.28,19.37 Z M30.02,5.81 C30.02,3.14 27.85,0.97 25.18,0.97 L5.81,0.97 C3.14,0.97 0.97,3.14 0.97,5.81 L0.97,25.18 C0.97,27.85 3.14,30.02 5.81,30.02 L15.48,30.02 L15.48,20.34 L12.59,20.33 L12.59,15.49 L15.49,15.5 L15.5,11.62 C15.5,10.11 16.58,7.75 19.37,7.75 L19.74,7.75 C24.24,7.75 24.17,7.76 24.17,7.76 L24.17,12.6 L21.23,12.6 C21.23,12.6 20.3,12.61 20.3,13.57 L20.3,15.51 L23.25,15.5 L23.25,20.34 L20.34,20.34 L20.34,30.03 L25.18,30.03 C27.85,30.03 30.02,27.86 30.02,25.19 L30.02,5.81 L30.02,5.81 Z" id="Shape" fill="#FFFFFF" sketch:type="MSShapeGroup"></path>
    </g>
</svg>