<?xml version="1.0" encoding="utf-8"?>
<!-- Generator: Adobe Illustrator 18.1.1, SVG Export Plug-In . SVG Version: 6.00 Build 0)  -->
<!DOCTYPE svg PUBLIC "-//W3C//DTD SVG 1.1//EN" "http://www.w3.org/Graphics/SVG/1.1/DTD/svg11.dtd">
<svg version="1.1" id="Layer_1" xmlns="http://www.w3.org/2000/svg" xmlns:xlink="http://www.w3.org/1999/xlink" x="0px" y="0px"
	 width="103px" height="124px" viewBox="-98 9 103 124" enable-background="new -98 9 103 124" xml:space="preserve">
<g>
	<g>
		<path fill="#FFFFFF" d="M-80.3,132.8c-0.4,0-0.8-0.4-0.8-0.8v-9.9c0-0.4,0.4-0.8,0.8-0.8h3.9c3.6,0,5.4,2.9,5.4,5.7
			s-1.8,5.7-5.4,5.7h-3.9V132.8z M-79.8,131.6h3.4c2.7,0,4-2.3,4-4.5c0-2.2-1.3-4.6-4-4.6h-3.4V131.6z"/>
		<path fill="#FFFFFF" d="M-67.4,121.6c0-0.9,1.3-0.9,1.3,0v10.7c0,0.8-1.3,0.9-1.3,0V121.6z"/>
		<path fill="#FFFFFF" d="M-52.5,130.8c-1.1,1.4-2.8,2.2-4.6,2.2c-3.1,0-5.7-2.6-5.7-6c0-2.7,2-5.2,4.8-5.7c0.3,0,0.6-0.1,0.9-0.1
			c1.6,0,3.2,0.5,4.2,1.7c0.5,0.6-0.4,1.5-0.9,0.8c-1-1.2-2.7-1.6-4-1.2c-2,0.5-3.7,2.2-3.7,4.6c0,2.5,2.1,4.7,4.4,4.7
			c1.3,0,2.7-0.6,3.5-1.6v-2.4h-3.2c-0.8,0-0.8-1.2,0-1.2h3.8c0.5,0,0.7,0.3,0.7,0.7v3C-52.3,130.4-52.3,130.6-52.5,130.8z"/>
		<path fill="#FFFFFF" d="M-48.1,121.6c0-0.9,1.3-0.9,1.3,0v10.7c0,0.8-1.3,0.9-1.3,0V121.6z"/>
		<path fill="#FFFFFF" d="M-34.3,121.3c0.9,0,0.9,1.2,0,1.2h-4c0,3.2,0,6.5,0,9.8c0,0.4-0.4,0.7-0.7,0.7s-0.6-0.2-0.6-0.7v-9.8h-4
			c-0.8,0-0.8-1.2,0-1.2H-34.3z"/>
		<path fill="#FFFFFF" d="M-31.1,129.8l-1.5,2.8c-0.3,0.7-1.5,0.2-1.2-0.5l5.4-10.7c0.1-0.2,0.4-0.3,0.6-0.3s0.4,0.1,0.6,0.3
			l5.4,10.6c0.5,0.8-0.9,1.2-1.2,0.5l-1.4-2.8L-31.1,129.8L-31.1,129.8z M-27.7,123l-2.8,5.7h5.7L-27.7,123z"/>
		<path fill="#FFFFFF" d="M-17.9,132.8c-0.5,0-0.7-0.2-0.7-0.7v-10.3c0-0.8,1.3-0.8,1.3,0v9.8h6.7c0.9,0,0.9,1.2,0,1.2H-17.9z"/>
	</g>
	<g>
		<path fill="#FFFFFF" d="M-83,19v59h69V19H-83z M-60.8,24.7c1.5,0,2.7,1.2,2.7,2.7s-1.2,2.7-2.7,2.7s-2.7-1.2-2.7-2.7
			C-63.5,25.8-62.3,24.7-60.8,24.7z M-67.8,24.7c1.5,0,2.7,1.2,2.7,2.7s-1.2,2.7-2.7,2.7s-2.7-1.2-2.7-2.7
			C-70.5,25.8-69.3,24.7-67.8,24.7z M-74.8,24.7c1.5,0,2.7,1.2,2.7,2.7s-1.2,2.7-2.7,2.7s-2.7-1.2-2.7-2.7
			C-77.5,25.8-76.3,24.7-74.8,24.7z M-18,74h-61V34h61V74z"/>
		<g>
			<polygon fill="#FFFFFF" points="-66.2,66.4 -69,63.6 -59.5,54.1 -68.8,44.8 -66,42 -53.9,54.1 			"/>
		</g>
		<g>
			<rect x="-51" y="62" fill="#FFFFFF" width="22" height="4"/>
		</g>
	</g>
</g>
</svg>
