<?xml version="1.0" encoding="utf-8"?>
<!-- Generator: Adobe Illustrator 18.1.1, SVG Export Plug-In . SVG Version: 6.00 Build 0)  -->
<!DOCTYPE svg PUBLIC "-//W3C//DTD SVG 1.1//EN" "http://www.w3.org/Graphics/SVG/1.1/DTD/svg11.dtd">
<svg version="1.1" id="Layer_1" xmlns="http://www.w3.org/2000/svg" xmlns:xlink="http://www.w3.org/1999/xlink" x="0px" y="0px"
	 width="103px" height="124px" viewBox="-98 9 103 124" enable-background="new -98 9 103 124" xml:space="preserve">
<g>
	<path fill="#FFFFFF" d="M-18.5,22.2c-3.1,0-5.6,2.5-5.6,5.6s2.5,5.6,5.6,5.6s5.6-2.5,5.6-5.6S-15.4,22.2-18.5,22.2z M-46.5,46.5
		c-4.1,0-7.5,3.3-7.5,7.5s3.3,7.5,7.5,7.5S-39,58.2-39,54S-42.4,46.5-46.5,46.5z M-52.1,18.4c0-3.1-2.5-5.6-5.6-5.6
		s-5.6,2.5-5.6,5.6s2.5,5.6,5.6,5.6S-52.1,21.5-52.1,18.4z M-78.3,37.1c-2.1,0-3.7,1.7-3.7,3.7s1.7,3.7,3.7,3.7s3.7-1.7,3.7-3.7
		S-76.2,37.1-78.3,37.1z M-70.8,72.6c-3.1,0-5.6,2.5-5.6,5.6s2.5,5.6,5.6,5.6c3.1,0,5.6-2.5,5.6-5.6S-67.7,72.6-70.8,72.6z
		 M-44.6,85.7c2.1,0,3.7-1.7,3.7-3.7s-1.7-3.7-3.7-3.7s-3.7,1.7-3.7,3.7S-46.7,85.7-44.6,85.7z M-14.7,82c2.1,0,3.7-1.7,3.7-3.7
		s-1.7-3.7-3.7-3.7s-3.7,1.7-3.7,3.7S-16.8,82-14.7,82z M-18.5,37.1c-2,0-3.8-0.6-5.3-1.6l-12.9,13.1c0.9,1.6,1.4,3.4,1.4,5.3
		c0,2.1-0.6,4.1-1.6,5.8l16.7,13.5c1.4-1.5,3.3-2.4,5.5-2.4c4.1,0,7.5,3.3,7.5,7.5s-3.3,7.5-7.5,7.5s-7.5-3.3-7.5-7.5
		c0-0.6,0.1-1.1,0.2-1.7l-17.4-14.1c-1.9,1.6-4.4,2.6-7.1,2.6c-2.6,0-4.9-0.9-6.8-2.4l-8.9,12c0.3,0.8,0.6,1.6,0.7,2.5l10,1.9
		c1.1-2.7,3.8-4.7,6.9-4.7c4.1,0,7.5,3.3,7.5,7.5c0,4.1-3.3,7.5-7.5,7.5c-3.8,0-6.9-2.9-7.4-6.5l-9.9-1.9c-1.2,3.8-4.7,6.6-8.9,6.6
		c-5.2,0-9.3-4.2-9.3-9.3s4.2-9.3,9.3-9.3c2.6,0,4.9,1.1,6.5,2.7l8.5-11.4c-1.2-1.8-1.9-3.9-1.9-6.3c0-4.1,2.3-7.7,5.6-9.7L-58,27.7
		c-1.8-0.1-3.4-0.6-4.7-1.5l-9,10.9c0.6,1.1,1,2.4,1,3.7c0,4.1-3.3,7.5-7.5,7.5c-4.2,0-7.5-3.3-7.5-7.5s3.3-7.5,7.5-7.5
		c1.4,0,2.8,0.4,3.9,1.1l8.9-10.8c-1-1.5-1.6-3.3-1.6-5.2c0-5.2,4.2-9.3,9.3-9.3s9.3,4.2,9.3,9.3c0,4-2.5,7.3-6,8.7l5.7,15.8
		c0.7-0.1,1.4-0.2,2.1-0.2c3,0,5.6,1.2,7.6,3l12.6-12.8c-1-1.5-1.6-3.3-1.6-5.2c0-5.2,4.2-9.3,9.3-9.3c5.2,0,9.3,4.2,9.3,9.3
		S-13.3,37.1-18.5,37.1z"/>
	<g>
		<path fill="#FFFFFF" d="M-94.7,130c0.5,1.5,2.5,1.8,3.9,1.8c1.5,0,3.9-0.5,3.9-2.3c0-1.6-1.9-1.7-3.9-1.8
			c-2.5-0.2-5.1-0.4-5.1-3.1c0-2.4,2.7-3.4,4.9-3.4c1.9,0,4.2,0.4,5,2.5c0.3,0.7-1,1-1.2,0.4c-0.5-1.4-2.5-1.6-3.8-1.6
			c-1.2,0-3.5,0.5-3.5,2.1s1.8,1.7,3.9,1.9c2.5,0.2,5.1,0.3,5.1,3s-3.1,3.6-5.3,3.6c-1.8,0-4.6-0.6-5.2-2.8
			C-96.2,129.5-94.8,129.2-94.7,130z"/>
		<path fill="#FFFFFF" d="M-74.1,121.4c0.9,0,0.9,1.2,0,1.2h-4c0,3.2,0,6.5,0,9.8c0,0.4-0.4,0.7-0.7,0.7c-0.3,0-0.6-0.2-0.6-0.7
			v-9.8h-4c-0.8,0-0.8-1.2,0-1.2H-74.1z"/>
		<path fill="#FFFFFF" d="M-69.2,128.8v3.5c0,0.8-1.3,0.8-1.3,0V122c0-0.4,0.3-0.6,0.7-0.6h4.3c3.1,0,4.7,1.8,4.7,3.9
			c0,1.8-1,3.1-3.2,3.5l2.9,3.1c0.7,0.7-0.3,1.5-0.9,0.9l-3.6-3.9L-69.2,128.8L-69.2,128.8z M-69.2,127.7h3.6c2.4,0,3.4-1.1,3.3-2.4
			c0-1.5-1.3-2.7-3.3-2.7h-3.6C-69.2,122.6-69.2,127.7-69.2,127.7z"/>
		<path fill="#FFFFFF" d="M-56.1,129.8l-1.5,2.8c-0.3,0.7-1.5,0.2-1.2-0.5l5.4-10.7c0.1-0.2,0.4-0.3,0.6-0.3s0.4,0.1,0.6,0.3
			l5.4,10.6c0.5,0.8-0.9,1.2-1.2,0.5l-1.4-2.8L-56.1,129.8L-56.1,129.8z M-52.7,123l-2.8,5.7h5.7L-52.7,123z"/>
		<path fill="#FFFFFF" d="M-36.7,121.4c0.9,0,0.9,1.2,0,1.2h-4c0,3.2,0,6.5,0,9.8c0,0.4-0.4,0.7-0.7,0.7s-0.6-0.2-0.6-0.7v-9.8h-4
			c-0.8,0-0.8-1.2,0-1.2H-36.7z"/>
		<path fill="#FFFFFF" d="M-31.8,131.6h7.1c0.8,0,0.9,1.2,0,1.2h-7.6c-0.5,0-0.8-0.4-0.8-0.8v-9.9c0-0.4,0.3-0.8,0.8-0.8h7.6
			c0.8,0,0.7,1.1,0,1.1h-7.1v4h6.8c0.7,0,0.8,1.1,0,1.1h-6.8V131.6z"/>
		<path fill="#FFFFFF" d="M-10.8,130.8c-1.1,1.4-2.8,2.2-4.6,2.2c-3.1,0-5.7-2.6-5.7-6c0-2.7,2-5.2,4.8-5.7c0.3,0,0.6-0.1,0.9-0.1
			c1.6,0,3.2,0.5,4.2,1.7c0.5,0.6-0.4,1.5-0.9,0.8c-1-1.2-2.7-1.6-4-1.2c-2,0.5-3.7,2.2-3.7,4.6c0,2.5,2.1,4.7,4.4,4.7
			c1.3,0,2.7-0.6,3.5-1.6v-2.4h-3.2c-0.8,0-0.8-1.2,0-1.2h3.8c0.5,0,0.7,0.3,0.7,0.7v3C-10.6,130.4-10.6,130.6-10.8,130.8z"/>
		<path fill="#FFFFFF" d="M-3,128.2l-4.5-6c-0.5-0.7,0.6-1.4,1.1-0.7l4.1,5.5l4.1-5.6c0.4-0.7,1.6-0.1,1.1,0.6l-4.5,6.1v4
			c0,0.4-0.4,0.7-0.7,0.7c-0.4,0-0.7-0.2-0.7-0.7V128.2z"/>
	</g>
</g>
</svg>
