<?xml version="1.0" encoding="UTF-8" standalone="no"?>
<svg width="32px" height="26px" viewBox="0 0 32 26" version="1.1" xmlns="http://www.w3.org/2000/svg" xmlns:xlink="http://www.w3.org/1999/xlink" xmlns:sketch="http://www.bohemiancoding.com/sketch/ns">
    <!-- Generator: Sketch 3.0.4 (8054) - http://www.bohemiancoding.com/sketch -->
    <title>Slice 2</title>
    <desc>Created with Sketch.</desc>
    <defs></defs>
    <g id="Page-1" stroke="none" stroke-width="1" fill="none" fill-rule="evenodd" sketch:type="MSPage">
        <path d="M0,26.01 L2.48,26.01 L2.48,24.77 L0,24.77 L0,26.01 L0,26.01 Z M4.95,26.01 L32.19,26.01 L32.19,24.77 L4.95,24.77 L4.95,26.01 L4.95,26.01 Z M0,19.81 L2.48,19.81 L2.48,18.57 L0,18.57 L0,19.81 L0,19.81 Z M4.95,19.81 L32.19,19.81 L32.19,18.57 L4.95,18.57 L4.95,19.81 L4.95,19.81 Z M0,13.62 L2.48,13.62 L2.48,12.38 L0,12.38 L0,13.62 L0,13.62 Z M4.95,13.62 L32.19,13.62 L32.19,12.38 L4.95,12.38 L4.95,13.62 L4.95,13.62 Z M0,7.43 L2.48,7.43 L2.48,6.19 L0,6.19 L0,7.43 L0,7.43 Z M4.95,7.43 L32.19,7.43 L32.19,6.19 L4.95,6.19 L4.95,7.43 L4.95,7.43 Z M0,1.24 L2.48,1.24 L2.48,3.55271368e-15 L0,3.55271368e-15 L0,1.24 L0,1.24 Z M4.95,1.24 L32.19,1.24 L32.19,3.55271368e-15 L4.95,3.55271368e-15 L4.95,1.24 L4.95,1.24 Z" id="Shape" fill="#FFFFFF" sketch:type="MSShapeGroup"></path>
    </g>
</svg>