<?xml version="1.0" encoding="UTF-8" standalone="no"?>
<svg width="100px" height="92px" viewBox="0 0 100 92" version="1.1" xmlns="http://www.w3.org/2000/svg" xmlns:xlink="http://www.w3.org/1999/xlink" xmlns:sketch="http://www.bohemiancoding.com/sketch/ns">
    <!-- Generator: Sketch 3.0.4 (8054) - http://www.bohemiancoding.com/sketch -->
    <title>Slice 2</title>
    <desc>Created with Sketch.</desc>
    <defs></defs>
    <g id="Page-1" stroke="none" stroke-width="1" fill="none" fill-rule="evenodd" sketch:type="MSPage">
        <path d="M44.500824,38.25 L44.310824,38.25 L44.730824,38.25 L44.500824,38.25 L44.500824,38.25 Z M80.750824,52.02 C80.750824,50.67 71.590824,48.83 71.590824,47.52 C71.590824,47.52 58.780824,31.48 57.890824,21.16 C57.700824,18.74 55.740824,4.46 55.740824,4.46 C55.740824,4.46 54.740824,3.84 53.280824,3.84 C50.550824,3.84 46.160824,6.07 43.470824,18.96 C40.010824,35.24 43.120824,38.04 44.320824,38.24 L40.970824,38.24 L14.610824,38.28 L14.150824,38.24 C11.110824,38.24 8.46082399,41.47 8.11082399,44.97 C7.73082399,48.7 10.030824,51.93 13.230824,52.28 L11.150824,52.28 L10.460824,52.24 C7.03082399,52.24 3.80082399,54.78 3.80082399,58.28 C3.80082399,63.9 11.380824,64.59 11.380824,64.59 C8.69082399,65.05 5.57082399,67.9 5.22082399,71.09 C4.83082399,74.75 7.37082399,76.78 10.610824,77.13 L12.690824,77.13 C10.650824,77.86 8.23082399,81.59 8.73082399,84.44 C9.46082399,88.48 17.270824,88.48 17.270824,88.48 L78.830824,88.48 L80.750824,88.48 C80.750824,88.5 80.670824,63.6 80.750824,52.02 L80.750824,52.02 Z M84.600824,88.5 C84.600824,89.69 84.060824,90.81 83.100824,91.54 C82.410824,92.08 81.600824,92.35 80.750824,92.35 C80.440824,92.35 79.790824,92.24 79.790824,92.24 L17.270824,92.35 C17.270824,92.35 16.650824,92.04 16.500824,92.04 C10.000824,91.35 5.80082399,89.92 4.92082399,85.11 C4.61082399,83.42 4.84082399,80.38 5.46082399,78.99 C2.69082399,76.8 1.03082399,74.57 1.38082399,70.68 C1.61082399,68.76 2.38082399,66.99 3.46082399,65.52 C1.38082399,63.83 -0.0391760141,61.4 0.000823985938,58.29 C0.000823985938,54.71 2.00082399,51.6 4.96082399,49.86 C4.34082399,48.24 4.07082399,46.44 4.27082399,44.59 C4.89082399,38.9 9.20082399,34.43 14.160824,34.43 L15.010824,34.47 L38.130824,34.51 C37.860824,31.39 38.170824,25.43 39.710824,18.16 C42.870824,3.15 48.870824,-5.68434189e-14 53.290824,-5.68434189e-14 C55.790824,-5.68434189e-14 57.520824,1.04 57.830824,1.27 C58.790824,1.85 59.410824,2.85 59.560824,3.96 C59.750824,5.42 61.520824,18.39 61.750824,20.85 C62.370824,28.31 71.180824,40.78 74.560824,45.05 C75.250824,45.36 76.560824,45.82 77.410824,46.13 C81.410824,47.52 84.600824,48.63 84.600824,52.06 C84.560824,59.68 84.560824,72.3 84.600824,79.53 L84.600824,88.5 L84.600824,88.5 Z M96.140824,50.02 L92.290824,50.02 L92.290824,88.5 L96.140824,88.5 L96.140824,50.02 L96.140824,50.02 Z M96.140824,92.35 L92.290824,92.35 C90.170824,92.35 88.440824,90.62 88.440824,88.5 L88.440824,50.02 C88.440824,47.9 90.170824,46.17 92.290824,46.17 L96.140824,46.17 C98.260824,46.17 99.990824,47.9 99.990824,50.02 L99.990824,88.5 C99.990824,90.61 98.260824,92.35 96.140824,92.35 L96.140824,92.35 Z" id="Shape" fill="#E37222" sketch:type="MSShapeGroup"></path>
    </g>
</svg>