<?xml version="1.0" encoding="UTF-8" standalone="no"?>
<svg width="123px" height="100px" viewBox="0 0 123 100" version="1.1" xmlns="http://www.w3.org/2000/svg" xmlns:xlink="http://www.w3.org/1999/xlink" xmlns:sketch="http://www.bohemiancoding.com/sketch/ns">
    <!-- Generator: Sketch 3.0.4 (8054) - http://www.bohemiancoding.com/sketch -->
    <title>Slice 2</title>
    <desc>Created with Sketch.</desc>
    <defs></defs>
    <g id="Page-1" stroke="none" stroke-width="1" fill="none" fill-rule="evenodd" sketch:type="MSPage">
        <path d="M23.08,53.85 C24.49,53.85 25.64,52.7 25.64,51.29 C25.64,49.88 24.49,48.72 23.08,48.72 C21.67,48.72 20.52,49.87 20.52,51.29 C20.52,52.69 21.67,53.85 23.08,53.85 L23.08,53.85 Z M64.11,61.54 C65.52,61.54 66.67,60.39 66.67,58.98 C66.67,57.57 65.52,56.42 64.11,56.42 C62.7,56.42 61.55,57.57 61.55,58.98 C61.54,60.39 62.7,61.54 64.11,61.54 L64.11,61.54 Z M100,30.77 C101.41,30.77 102.56,29.62 102.56,28.21 C102.56,26.8 101.41,25.64 100,25.64 C98.59,25.64 97.44,26.79 97.44,28.21 C97.44,29.62 98.59,30.77 100,30.77 L100,30.77 Z M23.08,43.59 C27.03,43.59 30.26,46.59 30.7,50.44 L56.83,56.59 C57.83,53.51 60.7,51.28 64.11,51.28 C65.93,51.28 67.57,51.95 68.88,52.97 L93.21,31.71 C92.65,30.66 92.31,29.48 92.31,28.2 C92.31,23.94 95.75,20.51 100,20.51 C104.26,20.51 107.69,23.95 107.69,28.2 C107.69,32.46 104.25,35.89 100,35.89 C98.92,35.89 97.87,35.66 96.95,35.25 L71.64,57.38 C71.74,57.89 71.79,58.43 71.79,58.97 C71.79,63.23 68.35,66.66 64.1,66.66 C60.89,66.66 58.15,64.69 57,61.89 L29.54,55.43 C28.18,57.56 25.8,58.97 23.08,58.97 C18.82,58.97 15.39,55.53 15.39,51.28 C15.39,47.03 18.82,43.59 23.08,43.59 L23.08,43.59 Z M117.95,5.13 L5.13,5.13 L5.13,82.05 L117.95,82.05 L117.95,5.13 L117.95,5.13 Z M117.95,87.18 L79.49,87.18 L79.49,94.87 L87.18,94.87 L87.18,100 L35.9,100 L35.9,94.87 L43.59,94.87 L43.59,87.18 L5.13,87.18 C2.31,87.18 2.84217094e-14,84.87 2.84217094e-14,82.05 L2.84217094e-14,5.13 C2.84217094e-14,2.31 2.31,0 5.13,0 L117.95,0 C120.77,0 123.08,2.31 123.08,5.13 L123.08,82.05 C123.08,84.87 120.77,87.18 117.95,87.18 L117.95,87.18 Z" id="Shape" fill="#E37222" sketch:type="MSShapeGroup"></path>
    </g>
</svg>